第 3 章 tidyverse 数据格式 | 使用 tidyverse 的方式分析仪器测量的数据
…
df <- read_csv("./data/aci_ex.csv", local = locale(encoding = "latin1"))

## Parsed with column specification:
## cols(
##   .default = col_double(),
##   date = col_datetime(format = ""),
##   LightAdaptedID = col_character(),
##   DarkPulseID = col_character()
## )

## See spec(...) for full column specifications.

df

## # A tibble: 22 x 104
##      obs   time elapsed date                  TIME       E        A    Ci
##    <dbl>  <dbl>   <dbl> <dttm>               <dbl>   <dbl>    <dbl> <dbl>
##  1     1 1.48e9   7372. 2016-10-02 11:05:33 1.48e9 0.00770  29.5    275. 
##  2     2 1.48e9   7374. 2016-10-02 11:05:35 1.48e9 0.00781  26.3    239. 
##  3     3 1.48e9   7376. 2016-10-02 11:05:37 1.48e9 0.00790  22.8    205. 
##  4     4 1.48e9   7378. 2016-10-02 11:05:39 1.48e9 0.00799  18.6    173. 
##  5     5 1.48e9   7380. 2016-10-02 11:05:41 1.48e9 0.00806  14.4    140. 
##  6     6 1.48e9   7382. 2016-10-02 11:05:43 1.48e9 0.00822   9.73   110. 
##  7     7 1.48e9   7384. 2016-10-02 11:05:45 1.48e9 0.00835   5.01    78.8
##  8     8 1.48e9   7386. 2016-10-02 11:05:47 1.48e9 0.00839  -0.0205  48.5
##  9     9 1.48e9   7388. 2016-10-02 11:05:49 1.48e9 0.00860  28.8    286. 
## 10    10 1.48e9   7390. 2016-10-02 11:05:51 1.48e9 0.00875  34.9    362. 
## # ... with 12 more rows, and 96 more variables: Pci <dbl>, Pca <dbl>,
## #   gsw <dbl>, gbw <dbl>, gtw <dbl>, gtc <dbl>, Rabs <dbl>, TleafEB <dbl>,
## #   TleafCnd <dbl>, SVPleaf <dbl>, RHcham <dbl>, VPcham <dbl>,
## #   SVPcham <dbl>, VPDleaf <dbl>, blfa_1 <dbl>, blfa_2 <dbl>,
## #   blfa_3 <dbl>, DarkAdaptedID <dbl>, Fo <dbl>, Fm <dbl>, Fv <dbl>,
## #   Fv.Fm <dbl>, Adark <dbl>, LightAdaptedID <chr>, Fs <dbl>, Fm. <dbl>,
## #   PhiPS2 <dbl>, PS2.1 <dbl>, Qabs_fs <dbl>, Afs <dbl>, ETR <dbl>,
## #   Fv..Fm. <dbl>, PhiCO2 <dbl>, NPQ <dbl>, DarkPulseID <chr>, Fo. <dbl>,
## #   Fv. <dbl>, qP <dbl>, qN <dbl>, qP_Fo <dbl>, qN_Fo <dbl>, Qin <dbl>,
…
